%YAML 1.1
%TAG !u! tag:unity3d.com,2011:
--- !u!162 &1
EditorUserSettings:
  m_ObjectHideFlags: 0
  serializedVersion: 4
  m_ConfigSettings:
    RecentlyUsedScenePath-0:
      value: 224247031146466c050b092e132b5e1904582f22292d2a1325281421a2b17a2decee22f0
      flags: 0
    RecentlyUsedScenePath-1:
      value: 22424703114646680e0b0227036c681f041b1c03223c23222c2a093aedee103defe878fce9332b25
      flags: 0
    RecentlyUsedScenePath-2:
      value: 224247031146466c050b092e132b5e1904582b2929262323621e1536e7ec1730e3ee24a9b6742a323016f6
      flags: 0
    RecentlyUsedScenePath-3:
      value: 224247031146466c050b092e132b5e1904582b2929262323621e1536e7ec3730e3ee24a9a7687129370bfb25
      flags: 0
    RecentlyUsedScenePath-4:
      value: 224247031146466c050b092e132b5e1904341724383a293c212c0f7cd1e33136e7f479dee8283338100cfb39163f022bfb05072ff306054b4040e80018eb09
      flags: 0
    RecentlyUsedScenePath-5:
      value: 224247031146466c050b092e132b5e1904341724383a293c212c0f7cd1e33136e7f479deef3f3a301a0aee35167e5071e704001fef
      flags: 0
    vcSharedLogLevel:
      value: 0d5e400f0650
      flags: 0
  m_VCAutomaticAdd: 1
  m_VCDebugCom: 0
  m_VCDebugCmd: 0
  m_VCDebugOut: 0
  m_SemanticMergeMode: 2
  m_VCShowFailedCheckout: 1
  m_VCOverwriteFailedCheckoutAssets: 1
  m_VCProjectOverlayIcons: 1
  m_VCHierarchyOverlayIcons: 1
  m_VCOtherOverlayIcons: 1
  m_VCAllowAsyncUpdate: 1
